<?xml version="1.0" encoding="iso-8859-1"?>
<!-- Generator: Adobe Illustrator 19.0.0, SVG Export Plug-In . SVG Version: 6.00 Build 0)  -->
<svg version="1.1" id="Layer_1" xmlns="http://www.w3.org/2000/svg" xmlns:xlink="http://www.w3.org/1999/xlink" x="0px" y="0px"
	 viewBox="0 0 512 512" style="enable-background:new 0 0 512 512;" xml:space="preserve">
<path style="fill:#E5E5E5;" d="M373.089,42.654c-27.575-20.012-66.292-13.856-86.304,13.722
	c-18.431,25.401-16.158,106.078-15.837,115.193c0.199,5.641,5.825,9.743,11.264,8.174c8.765-2.523,86.17-25.383,104.601-50.784
	C406.822,101.38,400.666,62.665,373.089,42.654z"/>
<path style="fill:#CCCCCC;" d="M288.628,171.568c-0.32-9.116-2.594-89.792,15.837-115.193c10.204-14.062,25.275-22.54,41.248-24.833
	c-21.995-3.171-44.996,5.631-58.93,24.833c-18.431,25.401-16.158,106.078-15.837,115.193c0.199,5.641,5.825,9.743,11.264,8.174
	c1.376-0.396,4.443-1.293,8.706-2.622C289.574,175.645,288.705,173.721,288.628,171.568z"/>
<path style="fill:#E5E5E5;" d="M237.958,186.726c-1.97-3.741-49.047-91.855-119.185-113.601
	C76.765,60.097,15.53,78.215,2.495,120.25c-13.033,42.034,27.21,91.616,69.219,104.642c0,0,0,0,0,0.001
	c13.351,4.14,27.371,5.823,41.353,5.823c59.462,0,118.167-30.471,121.195-32.067C238.511,196.413,240.2,190.98,237.958,186.726z"/>
<path style="fill:#CCCCCC;" d="M236.895,184.764c-21.913,9.493-63.479,24.656-105.427,24.656c-13.982,0-28.001-1.683-41.353-5.823
	c0-0.001,0-0.001,0-0.001C48.107,190.57,7.864,140.988,20.897,98.954c1.018-3.282,2.33-6.418,3.903-9.405
	c-10.461,8.042-18.47,18.335-22.305,30.702c-13.033,42.034,27.21,91.616,69.219,104.642c0,0,0,0,0,0.001
	c13.351,4.14,27.371,5.823,41.353,5.823c59.462,0,118.167-30.471,121.195-32.067c4.251-2.237,5.939-7.669,3.697-11.923
	C237.821,186.466,237.459,185.787,236.895,184.764z"/>
<path style="fill:#FACF23;" d="M203.96,349.794c-0.131-3.783-2.661-7.061-6.288-8.148c-3.625-1.086-7.541,0.259-9.732,3.346
	c-36.791,51.828-65.695,99.741-65.983,100.218c-3.135,5.209,0.019,12.153,5.984,13.238c0.548,0.099,55.61,10.061,118.822,16.69
	c3.723,0.389,7.38-1.692,8.942-5.094c1.581-3.44,0.791-7.504-1.962-10.103C223.552,431.435,205.406,391.288,203.96,349.794z"/>
<path style="fill:#FFA929;" d="M249.62,455.881c-0.629,0.142-1.274,0.237-1.934,0.237c-0.306,0-0.614-0.016-0.924-0.048
	c-63.213-6.629-118.274-16.591-118.822-16.69c-0.719-0.131-1.395-0.351-2.027-0.639c-2.506,4.062-3.895,6.366-3.957,6.468
	c-3.135,5.207,0.019,12.153,5.984,13.238c0.548,0.099,55.61,10.061,118.822,16.69c3.723,0.389,7.38-1.692,8.942-5.094
	c1.581-3.44,0.791-7.504-1.962-10.103C252.339,458.614,250.971,457.255,249.62,455.881z"/>
<path style="fill:#FACF23;" d="M447.714,442.025c-2.639-0.86-5.056-1.707-7.391-2.589c-41.915-15.82-75.161-47.015-93.613-87.84
	c-18.451-40.825-19.901-86.391-4.082-128.304c1.739-4.61,5.225-9.741,2.73-14.699c-1.836-3.648-6.174-5.632-10.13-4.593
	c-7.713,2.019-15.302,4.705-22.557,7.984c-18.912,8.548-42.035,29.063-70.692,62.718c-0.863,1.014-1.486,2.209-1.821,3.498
	c-10.106,38.794-6.543,80.352,10.031,117.023c16.574,36.671,45.415,66.805,81.212,84.851c2.14,1.078,4.452,0.958,6.783,0.986
	c2.469,0.03,4.938,0.045,7.407,0.045c38.672,0,66.029-3.847,83.426-11.71c7.257-3.279,14.287-7.2,20.898-11.657
	C455.897,453.705,454.56,444.258,447.714,442.025z"/>
<path style="fill:#FFA929;" d="M447.714,442.025c-0.85-0.277-1.67-0.553-2.479-0.829c-3.522,1.969-7.125,3.789-10.787,5.444
	c-17.396,7.863-44.753,11.71-83.426,11.71c-3.368,0-6.819-0.029-10.361-0.087c-1.331-0.021-2.64-0.345-3.828-0.944
	c-35.795-18.046-64.637-48.18-81.211-84.851c-13.803-30.539-18.572-64.466-13.949-97.364c-0.7,0.925-1.223,1.97-1.516,3.095
	c-10.106,38.794-6.543,80.352,10.031,117.023c16.574,36.671,45.415,66.805,81.212,84.851c2.14,1.078,4.452,0.958,6.783,0.986
	c2.469,0.03,4.938,0.045,7.407,0.045c38.672,0,66.029-3.847,83.426-11.71c7.257-3.279,14.287-7.2,20.898-11.657
	C455.897,453.705,454.56,444.257,447.714,442.025z"/>
<path style="fill:#FACF23;" d="M499.549,282.518c-20.537-45.439-64.133-76.97-113.777-82.29c-3.5-0.386-6.882,1.361-8.618,4.419
	c-3.853,6.785-7.203,13.932-9.964,21.243c-29.219,77.418,9.993,164.174,87.41,193.393c5.628,2.124,11.379,3.897,17.216,5.349
	c2.663,0.662,5.428,1.668,8.212,1.324c2.433-0.301,4.695-1.66,6.11-3.662C514.947,381.515,520.085,327.957,499.549,282.518z"/>
<path style="fill:#FFA929;" d="M489.587,414.249c-5.837-1.453-11.588-3.226-17.216-5.349
	c-77.418-29.22-116.629-115.975-87.41-193.393c1.869-4.949,4.029-9.813,6.412-14.551c-1.858-0.275-3.724-0.527-5.6-0.727
	c-3.5-0.386-6.882,1.361-8.618,4.419c-3.853,6.785-7.203,13.932-9.964,21.243c-29.219,77.418,9.993,164.174,87.41,193.393
	c5.628,2.124,11.38,3.897,17.216,5.349c2.663,0.662,5.428,1.668,8.212,1.324c2.433-0.301,4.695-1.66,6.11-3.662
	c1.763-2.496,3.436-5.041,5.021-7.628C490.632,414.522,490.108,414.379,489.587,414.249z"/>
<g>
</g>
<g>
</g>
<g>
</g>
<g>
</g>
<g>
</g>
<g>
</g>
<g>
</g>
<g>
</g>
<g>
</g>
<g>
</g>
<g>
</g>
<g>
</g>
<g>
</g>
<g>
</g>
<g>
</g>
</svg>
